<svg xmlns="http://www.w3.org/2000/svg" width="24" height="24" fill-rule="evenodd" clip-rule="evenodd" preserveAspectRatio="none">
    <path d="M23.245 4l-11.245 14.374-11.219-14.374-.781.619 12 15.381 12-15.391-.755-.609z"/>
</svg>
